EESchema Schematic File Version 2
LIBS:power
LIBS:device
LIBS:transistors
LIBS:conn
LIBS:linear
LIBS:regul
LIBS:74xx
LIBS:cmos4000
LIBS:adc-dac
LIBS:memory
LIBS:xilinx
LIBS:microcontrollers
LIBS:dsp
LIBS:microchip
LIBS:analog_switches
LIBS:motorola
LIBS:texas
LIBS:intel
LIBS:audio
LIBS:interface
LIBS:digital-audio
LIBS:philips
LIBS:display
LIBS:cypress
LIBS:siliconi
LIBS:opto
LIBS:atmel
LIBS:contrib
LIBS:valves
LIBS:em_7seg
LIBS:Vane Display-cache
EELAYER 25 0
EELAYER END
$Descr A4 11693 8268
encoding utf-8
Sheet 1 1
Title ""
Date ""
Rev ""
Comp ""
Comment1 ""
Comment2 ""
Comment3 ""
Comment4 ""
$EndDescr
$Comp
L EM_7SEG Digit2
U 1 1 58C34E2D
P 3250 3100
F 0 "Digit2" H 3450 3150 60  0000 C CNN
F 1 "EM_7SEG" H 3150 3150 60  0000 C CNN
F 2 "S7S:S7S-display" H 3250 3100 60  0001 C CNN
F 3 "" H 3250 3100 60  0001 C CNN
	1    3250 3100
	1    0    0    -1  
$EndComp
$Comp
L TPIC6B595 U1
U 1 1 58C355AE
P 1950 1900
F 0 "U1" H 1950 1600 60  0000 C CNN
F 1 "TPIC6B595" H 1950 2400 60  0000 C CNN
F 2 "Housings_SOIC:SOIC-20W_7.5x12.8mm_Pitch1.27mm" H 1950 2400 60  0001 C CNN
F 3 "" H 1950 2400 60  0001 C CNN
	1    1950 1900
	1    0    0    -1  
$EndComp
$Comp
L TPIC6B595 U5
U 1 1 58C3578C
P 1950 4500
F 0 "U5" H 1950 4200 60  0000 C CNN
F 1 "TPIC6B595" H 1950 5000 60  0000 C CNN
F 2 "Housings_SOIC:SOIC-20W_7.5x12.8mm_Pitch1.27mm" H 1950 5000 60  0001 C CNN
F 3 "" H 1950 5000 60  0001 C CNN
	1    1950 4500
	1    0    0    -1  
$EndComp
$Comp
L R R3
U 1 1 58C35911
P 3750 1500
F 0 "R3" V 3830 1500 50  0000 C CNN
F 1 "50R" V 3750 1500 50  0000 C CNN
F 2 "Resistors_SMD:R_1206_HandSoldering" V 3680 1500 50  0001 C CNN
F 3 "" H 3750 1500 50  0000 C CNN
	1    3750 1500
	0    1    1    0   
$EndComp
$Comp
L R R5
U 1 1 58C359C5
P 4000 1600
F 0 "R5" V 4080 1600 50  0000 C CNN
F 1 "50R" V 4000 1600 50  0000 C CNN
F 2 "Resistors_SMD:R_1206_HandSoldering" V 3930 1600 50  0001 C CNN
F 3 "" H 4000 1600 50  0000 C CNN
	1    4000 1600
	0    1    1    0   
$EndComp
$Comp
L R R7
U 1 1 58C359E7
P 3750 1700
F 0 "R7" V 3830 1700 50  0000 C CNN
F 1 "50R" V 3750 1700 50  0000 C CNN
F 2 "Resistors_SMD:R_1206_HandSoldering" V 3680 1700 50  0001 C CNN
F 3 "" H 3750 1700 50  0000 C CNN
	1    3750 1700
	0    1    1    0   
$EndComp
$Comp
L R R9
U 1 1 58C35A0D
P 4000 1800
F 0 "R9" V 4080 1800 50  0000 C CNN
F 1 "50R" V 4000 1800 50  0000 C CNN
F 2 "Resistors_SMD:R_1206_HandSoldering" V 3930 1800 50  0001 C CNN
F 3 "" H 4000 1800 50  0000 C CNN
	1    4000 1800
	0    1    1    0   
$EndComp
$Comp
L R R11
U 1 1 58C35A36
P 3750 1900
F 0 "R11" V 3830 1900 50  0000 C CNN
F 1 "50R" V 3750 1900 50  0000 C CNN
F 2 "Resistors_SMD:R_1206_HandSoldering" V 3680 1900 50  0001 C CNN
F 3 "" H 3750 1900 50  0000 C CNN
	1    3750 1900
	0    1    1    0   
$EndComp
$Comp
L R R13
U 1 1 58C35A61
P 4000 2000
F 0 "R13" V 4080 2000 50  0000 C CNN
F 1 "50R" V 4000 2000 50  0000 C CNN
F 2 "Resistors_SMD:R_1206_HandSoldering" V 3930 2000 50  0001 C CNN
F 3 "" H 4000 2000 50  0000 C CNN
	1    4000 2000
	0    1    1    0   
$EndComp
$Comp
L R R15
U 1 1 58C35A90
P 3750 2100
F 0 "R15" V 3830 2100 50  0000 C CNN
F 1 "50R" V 3750 2100 50  0000 C CNN
F 2 "Resistors_SMD:R_1206_HandSoldering" V 3680 2100 50  0001 C CNN
F 3 "" H 3750 2100 50  0000 C CNN
	1    3750 2100
	0    1    1    0   
$EndComp
$Comp
L R R19
U 1 1 58C35E48
P 3750 4100
F 0 "R19" V 3830 4100 50  0000 C CNN
F 1 "50R" V 3750 4100 50  0000 C CNN
F 2 "Resistors_SMD:R_1206_HandSoldering" V 3680 4100 50  0001 C CNN
F 3 "" H 3750 4100 50  0000 C CNN
	1    3750 4100
	0    1    1    0   
$EndComp
$Comp
L R R21
U 1 1 58C35E4E
P 4000 4200
F 0 "R21" V 4080 4200 50  0000 C CNN
F 1 "50R" V 4000 4200 50  0000 C CNN
F 2 "Resistors_SMD:R_1206_HandSoldering" V 3930 4200 50  0001 C CNN
F 3 "" H 4000 4200 50  0000 C CNN
	1    4000 4200
	0    1    1    0   
$EndComp
$Comp
L R R23
U 1 1 58C35E54
P 3750 4300
F 0 "R23" V 3830 4300 50  0000 C CNN
F 1 "50R" V 3750 4300 50  0000 C CNN
F 2 "Resistors_SMD:R_1206_HandSoldering" V 3680 4300 50  0001 C CNN
F 3 "" H 3750 4300 50  0000 C CNN
	1    3750 4300
	0    1    1    0   
$EndComp
$Comp
L R R25
U 1 1 58C35E5A
P 4000 4400
F 0 "R25" V 4080 4400 50  0000 C CNN
F 1 "50R" V 4000 4400 50  0000 C CNN
F 2 "Resistors_SMD:R_1206_HandSoldering" V 3930 4400 50  0001 C CNN
F 3 "" H 4000 4400 50  0000 C CNN
	1    4000 4400
	0    1    1    0   
$EndComp
$Comp
L R R27
U 1 1 58C35E60
P 3750 4500
F 0 "R27" V 3830 4500 50  0000 C CNN
F 1 "50R" V 3750 4500 50  0000 C CNN
F 2 "Resistors_SMD:R_1206_HandSoldering" V 3680 4500 50  0001 C CNN
F 3 "" H 3750 4500 50  0000 C CNN
	1    3750 4500
	0    1    1    0   
$EndComp
$Comp
L R R29
U 1 1 58C35E66
P 4000 4600
F 0 "R29" V 4080 4600 50  0000 C CNN
F 1 "50R" V 4000 4600 50  0000 C CNN
F 2 "Resistors_SMD:R_1206_HandSoldering" V 3930 4600 50  0001 C CNN
F 3 "" H 4000 4600 50  0000 C CNN
	1    4000 4600
	0    1    1    0   
$EndComp
$Comp
L R R31
U 1 1 58C35E6C
P 3750 4700
F 0 "R31" V 3830 4700 50  0000 C CNN
F 1 "50R" V 3750 4700 50  0000 C CNN
F 2 "Resistors_SMD:R_1206_HandSoldering" V 3680 4700 50  0001 C CNN
F 3 "" H 3750 4700 50  0000 C CNN
	1    3750 4700
	0    1    1    0   
$EndComp
$Comp
L EM_7SEG Digit1
U 1 1 58C377FC
P 6950 3100
F 0 "Digit1" H 7150 3150 60  0000 C CNN
F 1 "EM_7SEG" H 6850 3150 60  0000 C CNN
F 2 "S7S:S7S-display" H 6950 3100 60  0001 C CNN
F 3 "" H 6950 3100 60  0001 C CNN
	1    6950 3100
	1    0    0    -1  
$EndComp
$Comp
L TPIC6B595 U2
U 1 1 58C37802
P 5650 1900
F 0 "U2" H 5650 1600 60  0000 C CNN
F 1 "TPIC6B595" H 5650 2400 60  0000 C CNN
F 2 "Housings_SOIC:SOIC-20W_7.5x12.8mm_Pitch1.27mm" H 5650 2400 60  0001 C CNN
F 3 "" H 5650 2400 60  0001 C CNN
	1    5650 1900
	1    0    0    -1  
$EndComp
$Comp
L TPIC6B595 U6
U 1 1 58C37816
P 5650 4500
F 0 "U6" H 5650 4200 60  0000 C CNN
F 1 "TPIC6B595" H 5650 5000 60  0000 C CNN
F 2 "Housings_SOIC:SOIC-20W_7.5x12.8mm_Pitch1.27mm" H 5650 5000 60  0001 C CNN
F 3 "" H 5650 5000 60  0001 C CNN
	1    5650 4500
	1    0    0    -1  
$EndComp
$Comp
L R R4
U 1 1 58C3782A
P 7450 1500
F 0 "R4" V 7530 1500 50  0000 C CNN
F 1 "50R" V 7450 1500 50  0000 C CNN
F 2 "Resistors_SMD:R_1206_HandSoldering" V 7380 1500 50  0001 C CNN
F 3 "" H 7450 1500 50  0000 C CNN
	1    7450 1500
	0    1    1    0   
$EndComp
$Comp
L R R6
U 1 1 58C37830
P 7700 1600
F 0 "R6" V 7780 1600 50  0000 C CNN
F 1 "50R" V 7700 1600 50  0000 C CNN
F 2 "Resistors_SMD:R_1206_HandSoldering" V 7630 1600 50  0001 C CNN
F 3 "" H 7700 1600 50  0000 C CNN
	1    7700 1600
	0    1    1    0   
$EndComp
$Comp
L R R8
U 1 1 58C37836
P 7450 1700
F 0 "R8" V 7530 1700 50  0000 C CNN
F 1 "50R" V 7450 1700 50  0000 C CNN
F 2 "Resistors_SMD:R_1206_HandSoldering" V 7380 1700 50  0001 C CNN
F 3 "" H 7450 1700 50  0000 C CNN
	1    7450 1700
	0    1    1    0   
$EndComp
$Comp
L R R10
U 1 1 58C3783C
P 7700 1800
F 0 "R10" V 7780 1800 50  0000 C CNN
F 1 "50R" V 7700 1800 50  0000 C CNN
F 2 "Resistors_SMD:R_1206_HandSoldering" V 7630 1800 50  0001 C CNN
F 3 "" H 7700 1800 50  0000 C CNN
	1    7700 1800
	0    1    1    0   
$EndComp
$Comp
L R R12
U 1 1 58C37842
P 7450 1900
F 0 "R12" V 7530 1900 50  0000 C CNN
F 1 "50R" V 7450 1900 50  0000 C CNN
F 2 "Resistors_SMD:R_1206_HandSoldering" V 7380 1900 50  0001 C CNN
F 3 "" H 7450 1900 50  0000 C CNN
	1    7450 1900
	0    1    1    0   
$EndComp
$Comp
L R R14
U 1 1 58C37848
P 7700 2000
F 0 "R14" V 7780 2000 50  0000 C CNN
F 1 "50R" V 7700 2000 50  0000 C CNN
F 2 "Resistors_SMD:R_1206_HandSoldering" V 7630 2000 50  0001 C CNN
F 3 "" H 7700 2000 50  0000 C CNN
	1    7700 2000
	0    1    1    0   
$EndComp
$Comp
L R R16
U 1 1 58C3784E
P 7450 2100
F 0 "R16" V 7530 2100 50  0000 C CNN
F 1 "50R" V 7450 2100 50  0000 C CNN
F 2 "Resistors_SMD:R_1206_HandSoldering" V 7380 2100 50  0001 C CNN
F 3 "" H 7450 2100 50  0000 C CNN
	1    7450 2100
	0    1    1    0   
$EndComp
$Comp
L R R20
U 1 1 58C37854
P 7450 4100
F 0 "R20" V 7530 4100 50  0000 C CNN
F 1 "50R" V 7450 4100 50  0000 C CNN
F 2 "Resistors_SMD:R_1206_HandSoldering" V 7380 4100 50  0001 C CNN
F 3 "" H 7450 4100 50  0000 C CNN
	1    7450 4100
	0    1    1    0   
$EndComp
$Comp
L R R22
U 1 1 58C3785A
P 7700 4200
F 0 "R22" V 7780 4200 50  0000 C CNN
F 1 "50R" V 7700 4200 50  0000 C CNN
F 2 "Resistors_SMD:R_1206_HandSoldering" V 7630 4200 50  0001 C CNN
F 3 "" H 7700 4200 50  0000 C CNN
	1    7700 4200
	0    1    1    0   
$EndComp
$Comp
L R R24
U 1 1 58C37860
P 7450 4300
F 0 "R24" V 7530 4300 50  0000 C CNN
F 1 "50R" V 7450 4300 50  0000 C CNN
F 2 "Resistors_SMD:R_1206_HandSoldering" V 7380 4300 50  0001 C CNN
F 3 "" H 7450 4300 50  0000 C CNN
	1    7450 4300
	0    1    1    0   
$EndComp
$Comp
L R R26
U 1 1 58C37866
P 7700 4400
F 0 "R26" V 7780 4400 50  0000 C CNN
F 1 "50R" V 7700 4400 50  0000 C CNN
F 2 "Resistors_SMD:R_1206_HandSoldering" V 7630 4400 50  0001 C CNN
F 3 "" H 7700 4400 50  0000 C CNN
	1    7700 4400
	0    1    1    0   
$EndComp
$Comp
L R R28
U 1 1 58C3786C
P 7450 4500
F 0 "R28" V 7530 4500 50  0000 C CNN
F 1 "50R" V 7450 4500 50  0000 C CNN
F 2 "Resistors_SMD:R_1206_HandSoldering" V 7380 4500 50  0001 C CNN
F 3 "" H 7450 4500 50  0000 C CNN
	1    7450 4500
	0    1    1    0   
$EndComp
$Comp
L R R30
U 1 1 58C37872
P 7700 4600
F 0 "R30" V 7780 4600 50  0000 C CNN
F 1 "50R" V 7700 4600 50  0000 C CNN
F 2 "Resistors_SMD:R_1206_HandSoldering" V 7630 4600 50  0001 C CNN
F 3 "" H 7700 4600 50  0000 C CNN
	1    7700 4600
	0    1    1    0   
$EndComp
$Comp
L R R32
U 1 1 58C37878
P 7450 4700
F 0 "R32" V 7530 4700 50  0000 C CNN
F 1 "50R" V 7450 4700 50  0000 C CNN
F 2 "Resistors_SMD:R_1206_HandSoldering" V 7380 4700 50  0001 C CNN
F 3 "" H 7450 4700 50  0000 C CNN
	1    7450 4700
	0    1    1    0   
$EndComp
$Comp
L +24V #PWR01
U 1 1 58C39EB3
P 4200 1450
F 0 "#PWR01" H 4200 1300 50  0001 C CNN
F 1 "+24V" H 4200 1590 50  0000 C CNN
F 2 "" H 4200 1450 50  0000 C CNN
F 3 "" H 4200 1450 50  0000 C CNN
	1    4200 1450
	1    0    0    -1  
$EndComp
$Comp
L +24V #PWR02
U 1 1 58C39F2D
P 7900 1450
F 0 "#PWR02" H 7900 1300 50  0001 C CNN
F 1 "+24V" H 7900 1590 50  0000 C CNN
F 2 "" H 7900 1450 50  0000 C CNN
F 3 "" H 7900 1450 50  0000 C CNN
	1    7900 1450
	1    0    0    -1  
$EndComp
$Comp
L +24V #PWR03
U 1 1 58C39FA7
P 7900 4050
F 0 "#PWR03" H 7900 3900 50  0001 C CNN
F 1 "+24V" H 7900 4190 50  0000 C CNN
F 2 "" H 7900 4050 50  0000 C CNN
F 3 "" H 7900 4050 50  0000 C CNN
	1    7900 4050
	1    0    0    -1  
$EndComp
$Comp
L +24V #PWR04
U 1 1 58C3A021
P 4200 4050
F 0 "#PWR04" H 4200 3900 50  0001 C CNN
F 1 "+24V" H 4200 4190 50  0000 C CNN
F 2 "" H 4200 4050 50  0000 C CNN
F 3 "" H 4200 4050 50  0000 C CNN
	1    4200 4050
	1    0    0    -1  
$EndComp
$Comp
L +5V #PWR05
U 1 1 58C3B3EC
P 1950 800
F 0 "#PWR05" H 1950 650 50  0001 C CNN
F 1 "+5V" H 1950 940 50  0000 C CNN
F 2 "" H 1950 800 50  0000 C CNN
F 3 "" H 1950 800 50  0000 C CNN
	1    1950 800 
	1    0    0    -1  
$EndComp
$Comp
L +5V #PWR06
U 1 1 58C3B466
P 1950 3400
F 0 "#PWR06" H 1950 3250 50  0001 C CNN
F 1 "+5V" H 1950 3540 50  0000 C CNN
F 2 "" H 1950 3400 50  0000 C CNN
F 3 "" H 1950 3400 50  0000 C CNN
	1    1950 3400
	1    0    0    -1  
$EndComp
$Comp
L +5V #PWR07
U 1 1 58C3B4E0
P 5650 800
F 0 "#PWR07" H 5650 650 50  0001 C CNN
F 1 "+5V" H 5650 940 50  0000 C CNN
F 2 "" H 5650 800 50  0000 C CNN
F 3 "" H 5650 800 50  0000 C CNN
	1    5650 800 
	1    0    0    -1  
$EndComp
$Comp
L +5V #PWR08
U 1 1 58C3B55A
P 5650 3400
F 0 "#PWR08" H 5650 3250 50  0001 C CNN
F 1 "+5V" H 5650 3540 50  0000 C CNN
F 2 "" H 5650 3400 50  0000 C CNN
F 3 "" H 5650 3400 50  0000 C CNN
	1    5650 3400
	1    0    0    -1  
$EndComp
$Comp
L GND #PWR09
U 1 1 58C3C1F6
P 1950 2900
F 0 "#PWR09" H 1950 2650 50  0001 C CNN
F 1 "GND" H 1950 2750 50  0000 C CNN
F 2 "" H 1950 2900 50  0000 C CNN
F 3 "" H 1950 2900 50  0000 C CNN
	1    1950 2900
	1    0    0    -1  
$EndComp
$Comp
L GND #PWR010
U 1 1 58C3C4C0
P 1950 5500
F 0 "#PWR010" H 1950 5250 50  0001 C CNN
F 1 "GND" H 1950 5350 50  0000 C CNN
F 2 "" H 1950 5500 50  0000 C CNN
F 3 "" H 1950 5500 50  0000 C CNN
	1    1950 5500
	1    0    0    -1  
$EndComp
$Comp
L GND #PWR011
U 1 1 58C3C835
P 5650 5500
F 0 "#PWR011" H 5650 5250 50  0001 C CNN
F 1 "GND" H 5650 5350 50  0000 C CNN
F 2 "" H 5650 5500 50  0000 C CNN
F 3 "" H 5650 5500 50  0000 C CNN
	1    5650 5500
	1    0    0    -1  
$EndComp
$Comp
L GND #PWR012
U 1 1 58C3CB45
P 5650 2900
F 0 "#PWR012" H 5650 2650 50  0001 C CNN
F 1 "GND" H 5650 2750 50  0000 C CNN
F 2 "" H 5650 2900 50  0000 C CNN
F 3 "" H 5650 2900 50  0000 C CNN
	1    5650 2900
	1    0    0    -1  
$EndComp
$Comp
L R R1
U 1 1 58C4288D
P 1200 1100
F 0 "R1" V 1280 1100 50  0000 C CNN
F 1 "10K" V 1200 1100 50  0000 C CNN
F 2 "Resistors_SMD:R_1206_HandSoldering" V 1130 1100 50  0001 C CNN
F 3 "" H 1200 1100 50  0000 C CNN
	1    1200 1100
	1    0    0    -1  
$EndComp
$Comp
L C C1
U 1 1 58C43032
P 2750 1100
F 0 "C1" H 2775 1200 50  0000 L CNN
F 1 "0.1u" H 2775 1000 50  0000 L CNN
F 2 "Capacitors_SMD:C_1206_HandSoldering" H 2788 950 50  0001 C CNN
F 3 "" H 2750 1100 50  0000 C CNN
	1    2750 1100
	1    0    0    -1  
$EndComp
$Comp
L GND #PWR013
U 1 1 58C4323C
P 2750 1300
F 0 "#PWR013" H 2750 1050 50  0001 C CNN
F 1 "GND" H 2750 1150 50  0000 C CNN
F 2 "" H 2750 1300 50  0000 C CNN
F 3 "" H 2750 1300 50  0000 C CNN
	1    2750 1300
	1    0    0    -1  
$EndComp
$Comp
L R R17
U 1 1 58C44995
P 1200 3700
F 0 "R17" V 1280 3700 50  0000 C CNN
F 1 "10K" V 1200 3700 50  0000 C CNN
F 2 "Resistors_SMD:R_1206_HandSoldering" V 1130 3700 50  0001 C CNN
F 3 "" H 1200 3700 50  0000 C CNN
	1    1200 3700
	1    0    0    -1  
$EndComp
$Comp
L R R18
U 1 1 58C453DC
P 4900 3700
F 0 "R18" V 4980 3700 50  0000 C CNN
F 1 "10K" V 4900 3700 50  0000 C CNN
F 2 "Resistors_SMD:R_1206_HandSoldering" V 4830 3700 50  0001 C CNN
F 3 "" H 4900 3700 50  0000 C CNN
	1    4900 3700
	1    0    0    -1  
$EndComp
$Comp
L R R2
U 1 1 58C45707
P 4900 1100
F 0 "R2" V 4980 1100 50  0000 C CNN
F 1 "10K" V 4900 1100 50  0000 C CNN
F 2 "Resistors_SMD:R_1206_HandSoldering" V 4830 1100 50  0001 C CNN
F 3 "" H 4900 1100 50  0000 C CNN
	1    4900 1100
	1    0    0    -1  
$EndComp
$Comp
L C C2
U 1 1 58C46181
P 6450 1100
F 0 "C2" H 6475 1200 50  0000 L CNN
F 1 "0.1u" H 6475 1000 50  0000 L CNN
F 2 "Capacitors_SMD:C_1206_HandSoldering" H 6488 950 50  0001 C CNN
F 3 "" H 6450 1100 50  0000 C CNN
	1    6450 1100
	1    0    0    -1  
$EndComp
$Comp
L GND #PWR014
U 1 1 58C46B7D
P 6450 1300
F 0 "#PWR014" H 6450 1050 50  0001 C CNN
F 1 "GND" H 6450 1150 50  0000 C CNN
F 2 "" H 6450 1300 50  0000 C CNN
F 3 "" H 6450 1300 50  0000 C CNN
	1    6450 1300
	1    0    0    -1  
$EndComp
$Comp
L C C4
U 1 1 58C46D06
P 6450 3700
F 0 "C4" H 6475 3800 50  0000 L CNN
F 1 "0.1u" H 6475 3600 50  0000 L CNN
F 2 "Capacitors_SMD:C_1206_HandSoldering" H 6488 3550 50  0001 C CNN
F 3 "" H 6450 3700 50  0000 C CNN
	1    6450 3700
	1    0    0    -1  
$EndComp
$Comp
L GND #PWR015
U 1 1 58C470B8
P 6450 3900
F 0 "#PWR015" H 6450 3650 50  0001 C CNN
F 1 "GND" H 6450 3750 50  0000 C CNN
F 2 "" H 6450 3900 50  0000 C CNN
F 3 "" H 6450 3900 50  0000 C CNN
	1    6450 3900
	1    0    0    -1  
$EndComp
$Comp
L C C3
U 1 1 58C47247
P 2750 3700
F 0 "C3" H 2775 3800 50  0000 L CNN
F 1 "0.1u" H 2775 3600 50  0000 L CNN
F 2 "Capacitors_SMD:C_1206_HandSoldering" H 2788 3550 50  0001 C CNN
F 3 "" H 2750 3700 50  0000 C CNN
	1    2750 3700
	1    0    0    -1  
$EndComp
$Comp
L GND #PWR016
U 1 1 58C47535
P 2750 3900
F 0 "#PWR016" H 2750 3650 50  0001 C CNN
F 1 "GND" H 2750 3750 50  0000 C CNN
F 2 "" H 2750 3900 50  0000 C CNN
F 3 "" H 2750 3900 50  0000 C CNN
	1    2750 3900
	1    0    0    -1  
$EndComp
$Comp
L ATTINY841-SSU IC1
U 1 1 58C4A240
P 3950 6850
F 0 "IC1" H 3100 7600 50  0000 C CNN
F 1 "ATTINY841-SSU" H 4650 6100 50  0000 C CNN
F 2 "Housings_SOIC:SOIC-14_3.9x8.7mm_Pitch1.27mm" H 3950 6650 50  0000 C CIN
F 3 "" H 3950 6850 50  0000 C CNN
	1    3950 6850
	-1   0    0    -1  
$EndComp
$Comp
L Crystal Y1
U 1 1 58C4A941
P 2200 7200
F 0 "Y1" H 2200 7350 50  0000 C CNN
F 1 "Crystal" H 2200 7050 50  0000 C CNN
F 2 "Crystals:Crystal_HC49-U_Vertical" H 2200 7200 50  0001 C CNN
F 3 "" H 2200 7200 50  0000 C CNN
	1    2200 7200
	0    -1   1    0   
$EndComp
$Comp
L C C6
U 1 1 58C4AD74
P 1800 7050
F 0 "C6" H 1825 7150 50  0000 L CNN
F 1 "22p" H 1825 6950 50  0000 L CNN
F 2 "Capacitors_SMD:C_1206_HandSoldering" H 1838 6900 50  0001 C CNN
F 3 "" H 1800 7050 50  0000 C CNN
	1    1800 7050
	0    -1   1    0   
$EndComp
$Comp
L C C7
U 1 1 58C4AE70
P 1800 7350
F 0 "C7" H 1825 7450 50  0000 L CNN
F 1 "22p" H 1825 7250 50  0000 L CNN
F 2 "Capacitors_SMD:C_1206_HandSoldering" H 1838 7200 50  0001 C CNN
F 3 "" H 1800 7350 50  0000 C CNN
	1    1800 7350
	0    -1   1    0   
$EndComp
$Comp
L GND #PWR017
U 1 1 58C4B247
P 1600 7450
F 0 "#PWR017" H 1600 7200 50  0001 C CNN
F 1 "GND" H 1600 7300 50  0000 C CNN
F 2 "" H 1600 7450 50  0000 C CNN
F 3 "" H 1600 7450 50  0000 C CNN
	1    1600 7450
	-1   0    0    -1  
$EndComp
$Comp
L C C5
U 1 1 58C4BAAB
P 5200 6450
F 0 "C5" H 5225 6550 50  0000 L CNN
F 1 "0.1u" H 5225 6350 50  0000 L CNN
F 2 "Capacitors_SMD:C_1206_HandSoldering" H 5238 6300 50  0001 C CNN
F 3 "" H 5200 6450 50  0000 C CNN
	1    5200 6450
	-1   0    0    -1  
$EndComp
$Comp
L GND #PWR018
U 1 1 58C4BB66
P 5050 7550
F 0 "#PWR018" H 5050 7300 50  0001 C CNN
F 1 "GND" H 5050 7400 50  0000 C CNN
F 2 "" H 5050 7550 50  0000 C CNN
F 3 "" H 5050 7550 50  0000 C CNN
	1    5050 7550
	-1   0    0    -1  
$EndComp
$Comp
L GND #PWR019
U 1 1 58C4BC07
P 5200 6700
F 0 "#PWR019" H 5200 6450 50  0001 C CNN
F 1 "GND" H 5200 6550 50  0000 C CNN
F 2 "" H 5200 6700 50  0000 C CNN
F 3 "" H 5200 6700 50  0000 C CNN
	1    5200 6700
	-1   0    0    -1  
$EndComp
$Comp
L +5V #PWR020
U 1 1 58C4BFF2
P 5400 6150
F 0 "#PWR020" H 5400 6000 50  0001 C CNN
F 1 "+5V" H 5400 6290 50  0000 C CNN
F 2 "" H 5400 6150 50  0000 C CNN
F 3 "" H 5400 6150 50  0000 C CNN
	1    5400 6150
	-1   0    0    -1  
$EndComp
Wire Wire Line
	2950 2500 2950 1500
Wire Wire Line
	2650 1500 3600 1500
Wire Wire Line
	3050 2500 3050 1600
Wire Wire Line
	2650 1600 3850 1600
Wire Wire Line
	3150 2500 3150 1700
Wire Wire Line
	2650 1700 3600 1700
Wire Wire Line
	3250 2500 3250 1800
Wire Wire Line
	2650 1800 3850 1800
Wire Wire Line
	3350 2500 3350 1900
Wire Wire Line
	2650 1900 3600 1900
Wire Wire Line
	3450 2500 3450 2000
Wire Wire Line
	2650 2000 3850 2000
Wire Wire Line
	3550 2100 3550 2500
Wire Wire Line
	2650 2100 3600 2100
Wire Wire Line
	2650 4700 3600 4700
Wire Wire Line
	2650 4600 3850 4600
Wire Wire Line
	3450 3700 3450 4600
Wire Wire Line
	2650 4500 3600 4500
Wire Wire Line
	3350 3700 3350 4500
Wire Wire Line
	2650 4400 3850 4400
Wire Wire Line
	3250 3700 3250 4400
Wire Wire Line
	2650 4300 3600 4300
Wire Wire Line
	3150 3700 3150 4300
Wire Wire Line
	2650 4200 3850 4200
Wire Wire Line
	3050 3700 3050 4200
Wire Wire Line
	2650 4100 3600 4100
Wire Wire Line
	2950 3700 2950 4100
Connection ~ 2950 1500
Connection ~ 3050 1600
Connection ~ 3150 1700
Connection ~ 3250 1800
Connection ~ 3350 1900
Connection ~ 3450 2000
Connection ~ 3550 2100
Wire Wire Line
	3900 1500 4200 1500
Wire Wire Line
	4200 1450 4200 2100
Wire Wire Line
	4200 1700 3900 1700
Connection ~ 4200 1600
Wire Wire Line
	4200 1800 4150 1800
Connection ~ 4200 1700
Wire Wire Line
	4200 1900 3900 1900
Connection ~ 4200 1800
Wire Wire Line
	4200 2000 4150 2000
Connection ~ 4200 1900
Wire Wire Line
	4200 2100 3900 2100
Connection ~ 4200 2000
Connection ~ 2950 4100
Connection ~ 3050 4200
Connection ~ 3150 4300
Connection ~ 3250 4400
Connection ~ 3350 4500
Connection ~ 3450 4600
Connection ~ 3550 4700
Wire Wire Line
	3900 4100 4200 4100
Wire Wire Line
	4200 4050 4200 4700
Wire Wire Line
	4200 4200 4150 4200
Wire Wire Line
	4200 4300 3900 4300
Connection ~ 4200 4200
Wire Wire Line
	4200 4400 4150 4400
Connection ~ 4200 4300
Wire Wire Line
	4200 4500 3900 4500
Connection ~ 4200 4400
Wire Wire Line
	4200 4600 4150 4600
Connection ~ 4200 4500
Wire Wire Line
	4200 4700 3900 4700
Connection ~ 4200 4600
Wire Wire Line
	6650 2500 6650 1500
Wire Wire Line
	6350 1500 7300 1500
Wire Wire Line
	6750 2500 6750 1600
Wire Wire Line
	6350 1600 7550 1600
Wire Wire Line
	6850 2500 6850 1700
Wire Wire Line
	6350 1700 7300 1700
Wire Wire Line
	6950 2500 6950 1800
Wire Wire Line
	6350 1800 7550 1800
Wire Wire Line
	7050 2500 7050 1900
Wire Wire Line
	6350 1900 7300 1900
Wire Wire Line
	7150 2500 7150 2000
Wire Wire Line
	6350 2000 7550 2000
Wire Wire Line
	7250 2100 7250 2500
Wire Wire Line
	6350 2100 7300 2100
Wire Wire Line
	6350 4700 7300 4700
Wire Wire Line
	6350 4600 7550 4600
Wire Wire Line
	7150 3700 7150 4600
Wire Wire Line
	6350 4500 7300 4500
Wire Wire Line
	7050 3700 7050 4500
Wire Wire Line
	6350 4400 7550 4400
Wire Wire Line
	6950 3700 6950 4400
Wire Wire Line
	6350 4300 7300 4300
Wire Wire Line
	6850 3700 6850 4300
Wire Wire Line
	6350 4200 7550 4200
Wire Wire Line
	6750 3700 6750 4200
Wire Wire Line
	6350 4100 7300 4100
Wire Wire Line
	6650 3700 6650 4100
Connection ~ 6650 1500
Connection ~ 6750 1600
Connection ~ 6850 1700
Connection ~ 6950 1800
Connection ~ 7050 1900
Connection ~ 7150 2000
Connection ~ 7250 2100
Wire Wire Line
	7600 1500 7900 1500
Wire Wire Line
	7900 1450 7900 2100
Wire Wire Line
	7900 1600 7850 1600
Wire Wire Line
	7900 1700 7600 1700
Connection ~ 7900 1600
Wire Wire Line
	7900 1800 7850 1800
Connection ~ 7900 1700
Wire Wire Line
	7900 1900 7600 1900
Connection ~ 7900 1800
Wire Wire Line
	7900 2000 7850 2000
Connection ~ 7900 1900
Wire Wire Line
	7900 2100 7600 2100
Connection ~ 7900 2000
Connection ~ 6650 4100
Connection ~ 6750 4200
Connection ~ 6850 4300
Connection ~ 6950 4400
Connection ~ 7050 4500
Connection ~ 7150 4600
Connection ~ 7250 4700
Wire Wire Line
	7600 4100 7900 4100
Wire Wire Line
	7900 4050 7900 4700
Wire Wire Line
	7900 4200 7850 4200
Wire Wire Line
	7900 4300 7600 4300
Connection ~ 7900 4200
Wire Wire Line
	7900 4400 7850 4400
Connection ~ 7900 4300
Wire Wire Line
	7900 4500 7600 4500
Connection ~ 7900 4400
Wire Wire Line
	7900 4600 7850 4600
Connection ~ 7900 4500
Wire Wire Line
	7900 4700 7600 4700
Connection ~ 7900 4600
Wire Wire Line
	1100 1500 1250 1500
Wire Wire Line
	1100 1500 1100 5700
Wire Wire Line
	1100 4100 1250 4100
Wire Wire Line
	4950 4100 4800 4100
Wire Wire Line
	4800 5700 4800 1500
Wire Wire Line
	1100 5700 4800 5700
Connection ~ 1100 4100
Wire Wire Line
	4800 1500 4950 1500
Connection ~ 4800 4100
Wire Wire Line
	4950 4200 4700 4200
Wire Wire Line
	4700 5800 4700 1600
Wire Wire Line
	1000 5800 4700 5800
Wire Wire Line
	1000 1600 1000 5800
Wire Wire Line
	1000 4200 1250 4200
Wire Wire Line
	1000 1600 1250 1600
Connection ~ 1000 4200
Wire Wire Line
	4700 1600 4950 1600
Connection ~ 4700 4200
Wire Wire Line
	900  1900 1250 1900
Wire Wire Line
	900  1900 900  5900
Wire Wire Line
	900  4500 1250 4500
Wire Wire Line
	900  5900 4600 5900
Wire Wire Line
	4600 5900 4600 1900
Wire Wire Line
	4600 4500 4950 4500
Connection ~ 900  4500
Wire Wire Line
	4600 1900 4950 1900
Connection ~ 4600 4500
Connection ~ 4200 1500
Connection ~ 7900 1500
Connection ~ 7900 4100
Connection ~ 4200 4100
Wire Wire Line
	1950 800  1950 900 
Wire Wire Line
	1950 3400 1950 3500
Wire Wire Line
	5650 3400 5650 3500
Wire Wire Line
	5650 800  5650 900 
Wire Wire Line
	1950 2850 1950 2900
Wire Wire Line
	1950 5450 1950 5500
Wire Wire Line
	5650 5450 5650 5500
Wire Wire Line
	5650 2850 5650 2900
Wire Wire Line
	4150 1600 4200 1600
Wire Wire Line
	3550 3700 3550 4700
Wire Wire Line
	7250 3700 7250 4700
Connection ~ 1100 1500
Connection ~ 1000 1600
Wire Wire Line
	700  1700 1250 1700
Connection ~ 900  1900
Wire Wire Line
	1200 850  2750 850 
Wire Wire Line
	1200 850  1200 950 
Connection ~ 1950 850 
Wire Wire Line
	1200 1250 1200 1800
Wire Wire Line
	1200 1800 1250 1800
Wire Wire Line
	2750 850  2750 950 
Wire Wire Line
	2750 1250 2750 1300
Wire Wire Line
	1200 3850 1200 4400
Wire Wire Line
	1200 4400 1250 4400
Wire Wire Line
	1200 3550 1200 3450
Wire Wire Line
	1200 3450 2750 3450
Connection ~ 1950 3450
Wire Wire Line
	4900 3550 4900 3450
Wire Wire Line
	4900 3450 6450 3450
Connection ~ 5650 3450
Wire Wire Line
	4900 3850 4900 4400
Wire Wire Line
	4900 4400 4950 4400
Wire Wire Line
	4900 950  4900 850 
Wire Wire Line
	4900 850  6450 850 
Connection ~ 5650 850 
Wire Wire Line
	4900 1250 4900 1800
Wire Wire Line
	4900 1800 4950 1800
Wire Wire Line
	6450 850  6450 950 
Wire Wire Line
	6450 1300 6450 1250
Wire Wire Line
	6450 3450 6450 3550
Wire Wire Line
	6450 3900 6450 3850
Wire Wire Line
	2750 3900 2750 3850
Wire Wire Line
	2750 3450 2750 3550
Wire Wire Line
	2900 7150 2500 7150
Wire Wire Line
	2500 7150 2500 7050
Wire Wire Line
	2500 7050 1950 7050
Wire Wire Line
	2900 7250 2500 7250
Wire Wire Line
	2500 7250 2500 7350
Wire Wire Line
	2500 7350 1950 7350
Connection ~ 2200 7050
Connection ~ 2200 7350
Wire Wire Line
	1650 7050 1600 7050
Wire Wire Line
	1600 7050 1600 7450
Wire Wire Line
	1600 7350 1650 7350
Connection ~ 1600 7350
Wire Wire Line
	5000 6250 5400 6250
Wire Wire Line
	5200 6250 5200 6300
Wire Wire Line
	5200 6600 5200 6700
Wire Wire Line
	5000 7450 5050 7450
Wire Wire Line
	5050 7450 5050 7550
Wire Wire Line
	5400 6250 5400 6150
Connection ~ 5200 6250
Wire Wire Line
	1450 6850 2900 6850
Wire Wire Line
	1450 6650 2900 6650
Text Label 1450 6850 0    60   ~ 0
SDA
Text Label 1450 6650 0    60   ~ 0
SCL
Wire Wire Line
	700  1700 700  6350
Wire Wire Line
	700  6350 2900 6350
Wire Wire Line
	2900 6450 2800 6450
Wire Wire Line
	2800 6450 2800 5800
Connection ~ 2800 5800
Wire Wire Line
	2900 6550 2700 6550
Wire Wire Line
	2700 6550 2700 5700
Connection ~ 2700 5700
Wire Wire Line
	2900 7350 2600 7350
Text Label 2600 7350 0    60   ~ 0
RXD0
Text Notes 4950 7250 0    60   ~ 0
Note:\nSCL/SDA (i2c) uses alternate pins\nTXD0/RXD0 (USART0) uses alternate pins
Wire Wire Line
	2350 6750 2900 6750
Wire Wire Line
	2600 6750 2600 5900
Connection ~ 2600 5900
$Comp
L CONN_01X02 J1
U 1 1 58F2BABF
P 9300 950
F 0 "J1" H 9300 1100 50  0000 C CNN
F 1 "CONN_01X02" V 9400 950 50  0000 C CNN
F 2 "Pin_Headers:Pin_Header_Angled_1x02" H 9300 950 50  0001 C CNN
F 3 "" H 9300 950 50  0001 C CNN
	1    9300 950 
	1    0    0    1   
$EndComp
$Comp
L +24V #PWR021
U 1 1 58F2BBF0
P 9000 800
F 0 "#PWR021" H 9000 650 50  0001 C CNN
F 1 "+24V" H 9000 940 50  0000 C CNN
F 2 "" H 9000 800 50  0001 C CNN
F 3 "" H 9000 800 50  0001 C CNN
	1    9000 800 
	1    0    0    -1  
$EndComp
Wire Wire Line
	9100 900  9000 900 
Wire Wire Line
	9000 900  9000 800 
$Comp
L GND #PWR022
U 1 1 58F2BDC2
P 9000 1100
F 0 "#PWR022" H 9000 850 50  0001 C CNN
F 1 "GND" H 9000 950 50  0000 C CNN
F 2 "" H 9000 1100 50  0001 C CNN
F 3 "" H 9000 1100 50  0001 C CNN
	1    9000 1100
	1    0    0    -1  
$EndComp
Wire Wire Line
	9100 1000 9000 1000
Wire Wire Line
	9000 1000 9000 1100
$Comp
L CONN_01X02 J2
U 1 1 58F2C116
P 10000 950
F 0 "J2" H 10000 1100 50  0000 C CNN
F 1 "CONN_01X02" V 10100 950 50  0000 C CNN
F 2 "Pin_Headers:Pin_Header_Angled_1x02" H 10000 950 50  0001 C CNN
F 3 "" H 10000 950 50  0001 C CNN
	1    10000 950 
	1    0    0    1   
$EndComp
$Comp
L GND #PWR023
U 1 1 58F2C1F7
P 9700 1100
F 0 "#PWR023" H 9700 850 50  0001 C CNN
F 1 "GND" H 9700 950 50  0000 C CNN
F 2 "" H 9700 1100 50  0001 C CNN
F 3 "" H 9700 1100 50  0001 C CNN
	1    9700 1100
	1    0    0    -1  
$EndComp
$Comp
L +5V #PWR024
U 1 1 58F2C29E
P 9700 800
F 0 "#PWR024" H 9700 650 50  0001 C CNN
F 1 "+5V" H 9700 940 50  0000 C CNN
F 2 "" H 9700 800 50  0001 C CNN
F 3 "" H 9700 800 50  0001 C CNN
	1    9700 800 
	1    0    0    -1  
$EndComp
Wire Wire Line
	9700 800  9700 900 
Wire Wire Line
	9700 900  9800 900 
Wire Wire Line
	9800 1000 9700 1000
Wire Wire Line
	9700 1000 9700 1100
$Comp
L CONN_01X03 J3
U 1 1 58F2CBE3
P 9300 2000
F 0 "J3" H 9300 2200 50  0000 C CNN
F 1 "CONN_01X03" V 9400 2000 50  0000 C CNN
F 2 "Pin_Headers:Pin_Header_Angled_1x03" H 9300 2000 50  0001 C CNN
F 3 "" H 9300 2000 50  0001 C CNN
	1    9300 2000
	1    0    0    -1  
$EndComp
$Comp
L CONN_01X03 J4
U 1 1 58F2CCAA
P 10600 2000
F 0 "J4" H 10600 2200 50  0000 C CNN
F 1 "CONN_01X03" V 10700 2000 50  0000 C CNN
F 2 "Pin_Headers:Pin_Header_Angled_1x03" H 10600 2000 50  0001 C CNN
F 3 "" H 10600 2000 50  0001 C CNN
	1    10600 2000
	1    0    0    -1  
$EndComp
Wire Wire Line
	9100 2000 8800 2000
Wire Wire Line
	9100 2100 8800 2100
$Comp
L GND #PWR025
U 1 1 58F2D002
P 8600 1950
F 0 "#PWR025" H 8600 1700 50  0001 C CNN
F 1 "GND" H 8600 1800 50  0000 C CNN
F 2 "" H 8600 1950 50  0001 C CNN
F 3 "" H 8600 1950 50  0001 C CNN
	1    8600 1950
	1    0    0    -1  
$EndComp
$Comp
L GND #PWR026
U 1 1 58F2D468
P 9800 1950
F 0 "#PWR026" H 9800 1700 50  0001 C CNN
F 1 "GND" H 9800 1800 50  0000 C CNN
F 2 "" H 9800 1950 50  0001 C CNN
F 3 "" H 9800 1950 50  0001 C CNN
	1    9800 1950
	1    0    0    -1  
$EndComp
Text Label 8800 2000 0    60   ~ 0
SDA
Text Label 8800 2100 0    60   ~ 0
SCL
$Comp
L PWR_FLAG #FLG027
U 1 1 58F3135D
P 8750 6100
F 0 "#FLG027" H 8750 6175 50  0001 C CNN
F 1 "PWR_FLAG" H 8750 6250 50  0000 C CNN
F 2 "" H 8750 6100 50  0001 C CNN
F 3 "" H 8750 6100 50  0001 C CNN
	1    8750 6100
	-1   0    0    1   
$EndComp
$Comp
L PWR_FLAG #FLG028
U 1 1 58F3140A
P 9150 6100
F 0 "#FLG028" H 9150 6175 50  0001 C CNN
F 1 "PWR_FLAG" H 9150 6250 50  0000 C CNN
F 2 "" H 9150 6100 50  0001 C CNN
F 3 "" H 9150 6100 50  0001 C CNN
	1    9150 6100
	-1   0    0    1   
$EndComp
$Comp
L PWR_FLAG #FLG029
U 1 1 58F314B7
P 9550 6000
F 0 "#FLG029" H 9550 6075 50  0001 C CNN
F 1 "PWR_FLAG" H 9550 6150 50  0000 C CNN
F 2 "" H 9550 6000 50  0001 C CNN
F 3 "" H 9550 6000 50  0001 C CNN
	1    9550 6000
	1    0    0    -1  
$EndComp
$Comp
L +24V #PWR030
U 1 1 58F31564
P 8750 6000
F 0 "#PWR030" H 8750 5850 50  0001 C CNN
F 1 "+24V" H 8750 6140 50  0000 C CNN
F 2 "" H 8750 6000 50  0001 C CNN
F 3 "" H 8750 6000 50  0001 C CNN
	1    8750 6000
	1    0    0    -1  
$EndComp
$Comp
L +5V #PWR031
U 1 1 58F31611
P 9150 6000
F 0 "#PWR031" H 9150 5850 50  0001 C CNN
F 1 "+5V" H 9150 6140 50  0000 C CNN
F 2 "" H 9150 6000 50  0001 C CNN
F 3 "" H 9150 6000 50  0001 C CNN
	1    9150 6000
	1    0    0    -1  
$EndComp
$Comp
L GND #PWR032
U 1 1 58F316BE
P 9550 6100
F 0 "#PWR032" H 9550 5850 50  0001 C CNN
F 1 "GND" H 9550 5950 50  0000 C CNN
F 2 "" H 9550 6100 50  0001 C CNN
F 3 "" H 9550 6100 50  0001 C CNN
	1    9550 6100
	1    0    0    -1  
$EndComp
Wire Wire Line
	8750 6100 8750 6000
Wire Wire Line
	9150 6100 9150 6000
Wire Wire Line
	9550 6100 9550 6000
Wire Wire Line
	2650 2500 4500 2500
Wire Wire Line
	2900 6950 2600 6950
Text Label 2600 6950 0    60   ~ 0
TXD0
NoConn ~ 6350 4800
NoConn ~ 6350 5100
NoConn ~ 2900 6250
NoConn ~ 2650 4800
NoConn ~ 6350 2200
NoConn ~ 2650 2200
Wire Wire Line
	10400 2000 10000 2000
Wire Wire Line
	10400 2100 10000 2100
Text Label 10000 2000 0    60   ~ 0
TXD0
Text Label 10000 2100 0    60   ~ 0
RXD0
Wire Wire Line
	4500 2500 4500 1700
Wire Wire Line
	4500 1700 4950 1700
Wire Wire Line
	2650 5100 4500 5100
Wire Wire Line
	4500 5100 4500 4300
Wire Wire Line
	4500 4300 4950 4300
Wire Wire Line
	800  3200 6500 3200
Wire Wire Line
	6500 3200 6500 2500
Wire Wire Line
	6500 2500 6350 2500
Wire Wire Line
	1250 4300 800  4300
Wire Wire Line
	800  4300 800  3200
$Comp
L CONN_02X03 J5
U 1 1 58F4B555
P 9200 4650
F 0 "J5" H 9200 4850 50  0000 C CNN
F 1 "CONN_02X03" H 9200 4450 50  0000 C CNN
F 2 "Pin_Headers:Pin_Header_Straight_2x03" H 9200 3450 50  0001 C CNN
F 3 "" H 9200 3450 50  0001 C CNN
	1    9200 4650
	1    0    0    -1  
$EndComp
Wire Wire Line
	8950 4550 8700 4550
Wire Wire Line
	8950 4650 8700 4650
Wire Wire Line
	8950 4750 8700 4750
Wire Wire Line
	9450 4550 9700 4550
Wire Wire Line
	9450 4650 9700 4650
Wire Wire Line
	9450 4750 9700 4750
$Comp
L +5V #PWR033
U 1 1 58F4C078
P 9700 4400
F 0 "#PWR033" H 9700 4250 50  0001 C CNN
F 1 "+5V" H 9700 4540 50  0000 C CNN
F 2 "" H 9700 4400 50  0001 C CNN
F 3 "" H 9700 4400 50  0001 C CNN
	1    9700 4400
	1    0    0    -1  
$EndComp
Wire Wire Line
	9700 4550 9700 4400
$Comp
L GND #PWR034
U 1 1 58F4C51A
P 9700 4900
F 0 "#PWR034" H 9700 4650 50  0001 C CNN
F 1 "GND" H 9700 4750 50  0000 C CNN
F 2 "" H 9700 4900 50  0001 C CNN
F 3 "" H 9700 4900 50  0001 C CNN
	1    9700 4900
	1    0    0    -1  
$EndComp
Wire Wire Line
	9700 4750 9700 4900
Wire Wire Line
	1700 6650 1700 6550
Wire Wire Line
	1700 6550 1450 6550
Connection ~ 1700 6650
Wire Wire Line
	1700 6850 1700 6750
Wire Wire Line
	1700 6750 1450 6750
Connection ~ 1700 6850
Text Label 1450 6550 0    60   ~ 0
I_SCK
Connection ~ 2600 6750
Text Label 1450 6750 0    60   ~ 0
I_MOSI
Wire Wire Line
	2600 7450 2900 7450
Text Label 8700 4550 0    60   ~ 0
I_MISO
Text Label 2350 6750 0    60   ~ 0
I_MISO
Text Label 8700 4650 0    60   ~ 0
I_SCK
Text Label 8700 4750 0    60   ~ 0
I_RESET
Text Label 2600 7450 0    60   ~ 0
I_RESET
Text Label 9700 4650 2    60   ~ 0
I_MOSI
Wire Wire Line
	9100 1900 8600 1900
Wire Wire Line
	8600 1900 8600 1950
Wire Wire Line
	10400 1900 9800 1900
Wire Wire Line
	9800 1900 9800 1950
$EndSCHEMATC
