(export (version D)
  (design
    (source "/Users/peter/Documents/Vane Display/Vane Display.sch")
    (date "Tuesday, 18 April 2017 'pmt' 06:07:34 pm")
    (tool "Eeschema 4.0.6")
    (sheet (number 1) (name /) (tstamps /)
      (title_block
        (title)
        (company)
        (rev)
        (date)
        (source "Vane Display.sch")
        (comment (number 1) (value ""))
        (comment (number 2) (value ""))
        (comment (number 3) (value ""))
        (comment (number 4) (value "")))))
  (components
    (comp (ref Digit2)
      (value EM_7SEG)
      (footprint S7S:S7S-display)
      (libsource (lib em_7seg) (part EM_7SEG))
      (sheetpath (names /) (tstamps /))
      (tstamp 58C34E2D))
    (comp (ref U1)
      (value TPIC6B595)
      (footprint Housings_SOIC:SOIC-20W_7.5x12.8mm_Pitch1.27mm)
      (libsource (lib em_7seg) (part TPIC6B595))
      (sheetpath (names /) (tstamps /))
      (tstamp 58C355AE))
    (comp (ref U5)
      (value TPIC6B595)
      (footprint Housings_SOIC:SOIC-20W_7.5x12.8mm_Pitch1.27mm)
      (libsource (lib em_7seg) (part TPIC6B595))
      (sheetpath (names /) (tstamps /))
      (tstamp 58C3578C))
    (comp (ref R3)
      (value 50R)
      (footprint Resistors_SMD:R_1206_HandSoldering)
      (libsource (lib device) (part R))
      (sheetpath (names /) (tstamps /))
      (tstamp 58C35911))
    (comp (ref R5)
      (value 50R)
      (footprint Resistors_SMD:R_1206_HandSoldering)
      (libsource (lib device) (part R))
      (sheetpath (names /) (tstamps /))
      (tstamp 58C359C5))
    (comp (ref R7)
      (value 50R)
      (footprint Resistors_SMD:R_1206_HandSoldering)
      (libsource (lib device) (part R))
      (sheetpath (names /) (tstamps /))
      (tstamp 58C359E7))
    (comp (ref R9)
      (value 50R)
      (footprint Resistors_SMD:R_1206_HandSoldering)
      (libsource (lib device) (part R))
      (sheetpath (names /) (tstamps /))
      (tstamp 58C35A0D))
    (comp (ref R11)
      (value 50R)
      (footprint Resistors_SMD:R_1206_HandSoldering)
      (libsource (lib device) (part R))
      (sheetpath (names /) (tstamps /))
      (tstamp 58C35A36))
    (comp (ref R13)
      (value 50R)
      (footprint Resistors_SMD:R_1206_HandSoldering)
      (libsource (lib device) (part R))
      (sheetpath (names /) (tstamps /))
      (tstamp 58C35A61))
    (comp (ref R15)
      (value 50R)
      (footprint Resistors_SMD:R_1206_HandSoldering)
      (libsource (lib device) (part R))
      (sheetpath (names /) (tstamps /))
      (tstamp 58C35A90))
    (comp (ref R19)
      (value 50R)
      (footprint Resistors_SMD:R_1206_HandSoldering)
      (libsource (lib device) (part R))
      (sheetpath (names /) (tstamps /))
      (tstamp 58C35E48))
    (comp (ref R21)
      (value 50R)
      (footprint Resistors_SMD:R_1206_HandSoldering)
      (libsource (lib device) (part R))
      (sheetpath (names /) (tstamps /))
      (tstamp 58C35E4E))
    (comp (ref R23)
      (value 50R)
      (footprint Resistors_SMD:R_1206_HandSoldering)
      (libsource (lib device) (part R))
      (sheetpath (names /) (tstamps /))
      (tstamp 58C35E54))
    (comp (ref R25)
      (value 50R)
      (footprint Resistors_SMD:R_1206_HandSoldering)
      (libsource (lib device) (part R))
      (sheetpath (names /) (tstamps /))
      (tstamp 58C35E5A))
    (comp (ref R27)
      (value 50R)
      (footprint Resistors_SMD:R_1206_HandSoldering)
      (libsource (lib device) (part R))
      (sheetpath (names /) (tstamps /))
      (tstamp 58C35E60))
    (comp (ref R29)
      (value 50R)
      (footprint Resistors_SMD:R_1206_HandSoldering)
      (libsource (lib device) (part R))
      (sheetpath (names /) (tstamps /))
      (tstamp 58C35E66))
    (comp (ref R31)
      (value 50R)
      (footprint Resistors_SMD:R_1206_HandSoldering)
      (libsource (lib device) (part R))
      (sheetpath (names /) (tstamps /))
      (tstamp 58C35E6C))
    (comp (ref Digit1)
      (value EM_7SEG)
      (footprint S7S:S7S-display)
      (libsource (lib em_7seg) (part EM_7SEG))
      (sheetpath (names /) (tstamps /))
      (tstamp 58C377FC))
    (comp (ref U2)
      (value TPIC6B595)
      (footprint Housings_SOIC:SOIC-20W_7.5x12.8mm_Pitch1.27mm)
      (libsource (lib em_7seg) (part TPIC6B595))
      (sheetpath (names /) (tstamps /))
      (tstamp 58C37802))
    (comp (ref U6)
      (value TPIC6B595)
      (footprint Housings_SOIC:SOIC-20W_7.5x12.8mm_Pitch1.27mm)
      (libsource (lib em_7seg) (part TPIC6B595))
      (sheetpath (names /) (tstamps /))
      (tstamp 58C37816))
    (comp (ref R4)
      (value 50R)
      (footprint Resistors_SMD:R_1206_HandSoldering)
      (libsource (lib device) (part R))
      (sheetpath (names /) (tstamps /))
      (tstamp 58C3782A))
    (comp (ref R6)
      (value 50R)
      (footprint Resistors_SMD:R_1206_HandSoldering)
      (libsource (lib device) (part R))
      (sheetpath (names /) (tstamps /))
      (tstamp 58C37830))
    (comp (ref R8)
      (value 50R)
      (footprint Resistors_SMD:R_1206_HandSoldering)
      (libsource (lib device) (part R))
      (sheetpath (names /) (tstamps /))
      (tstamp 58C37836))
    (comp (ref R10)
      (value 50R)
      (footprint Resistors_SMD:R_1206_HandSoldering)
      (libsource (lib device) (part R))
      (sheetpath (names /) (tstamps /))
      (tstamp 58C3783C))
    (comp (ref R12)
      (value 50R)
      (footprint Resistors_SMD:R_1206_HandSoldering)
      (libsource (lib device) (part R))
      (sheetpath (names /) (tstamps /))
      (tstamp 58C37842))
    (comp (ref R14)
      (value 50R)
      (footprint Resistors_SMD:R_1206_HandSoldering)
      (libsource (lib device) (part R))
      (sheetpath (names /) (tstamps /))
      (tstamp 58C37848))
    (comp (ref R16)
      (value 50R)
      (footprint Resistors_SMD:R_1206_HandSoldering)
      (libsource (lib device) (part R))
      (sheetpath (names /) (tstamps /))
      (tstamp 58C3784E))
    (comp (ref R20)
      (value 50R)
      (footprint Resistors_SMD:R_1206_HandSoldering)
      (libsource (lib device) (part R))
      (sheetpath (names /) (tstamps /))
      (tstamp 58C37854))
    (comp (ref R22)
      (value 50R)
      (footprint Resistors_SMD:R_1206_HandSoldering)
      (libsource (lib device) (part R))
      (sheetpath (names /) (tstamps /))
      (tstamp 58C3785A))
    (comp (ref R24)
      (value 50R)
      (footprint Resistors_SMD:R_1206_HandSoldering)
      (libsource (lib device) (part R))
      (sheetpath (names /) (tstamps /))
      (tstamp 58C37860))
    (comp (ref R26)
      (value 50R)
      (footprint Resistors_SMD:R_1206_HandSoldering)
      (libsource (lib device) (part R))
      (sheetpath (names /) (tstamps /))
      (tstamp 58C37866))
    (comp (ref R28)
      (value 50R)
      (footprint Resistors_SMD:R_1206_HandSoldering)
      (libsource (lib device) (part R))
      (sheetpath (names /) (tstamps /))
      (tstamp 58C3786C))
    (comp (ref R30)
      (value 50R)
      (footprint Resistors_SMD:R_1206_HandSoldering)
      (libsource (lib device) (part R))
      (sheetpath (names /) (tstamps /))
      (tstamp 58C37872))
    (comp (ref R32)
      (value 50R)
      (footprint Resistors_SMD:R_1206_HandSoldering)
      (libsource (lib device) (part R))
      (sheetpath (names /) (tstamps /))
      (tstamp 58C37878))
    (comp (ref R1)
      (value 10K)
      (footprint Resistors_SMD:R_1206_HandSoldering)
      (libsource (lib device) (part R))
      (sheetpath (names /) (tstamps /))
      (tstamp 58C4288D))
    (comp (ref C1)
      (value 0.1u)
      (footprint Capacitors_SMD:C_1206_HandSoldering)
      (libsource (lib device) (part C))
      (sheetpath (names /) (tstamps /))
      (tstamp 58C43032))
    (comp (ref R17)
      (value 10K)
      (footprint Resistors_SMD:R_1206_HandSoldering)
      (libsource (lib device) (part R))
      (sheetpath (names /) (tstamps /))
      (tstamp 58C44995))
    (comp (ref R18)
      (value 10K)
      (footprint Resistors_SMD:R_1206_HandSoldering)
      (libsource (lib device) (part R))
      (sheetpath (names /) (tstamps /))
      (tstamp 58C453DC))
    (comp (ref R2)
      (value 10K)
      (footprint Resistors_SMD:R_1206_HandSoldering)
      (libsource (lib device) (part R))
      (sheetpath (names /) (tstamps /))
      (tstamp 58C45707))
    (comp (ref C2)
      (value 0.1u)
      (footprint Capacitors_SMD:C_1206_HandSoldering)
      (libsource (lib device) (part C))
      (sheetpath (names /) (tstamps /))
      (tstamp 58C46181))
    (comp (ref C4)
      (value 0.1u)
      (footprint Capacitors_SMD:C_1206_HandSoldering)
      (libsource (lib device) (part C))
      (sheetpath (names /) (tstamps /))
      (tstamp 58C46D06))
    (comp (ref C3)
      (value 0.1u)
      (footprint Capacitors_SMD:C_1206_HandSoldering)
      (libsource (lib device) (part C))
      (sheetpath (names /) (tstamps /))
      (tstamp 58C47247))
    (comp (ref IC1)
      (value ATTINY841-SSU)
      (footprint Housings_SOIC:SOIC-14_3.9x8.7mm_Pitch1.27mm)
      (libsource (lib atmel) (part ATTINY841-SSU))
      (sheetpath (names /) (tstamps /))
      (tstamp 58C4A240))
    (comp (ref Y1)
      (value Crystal)
      (footprint Crystals:Crystal_HC49-U_Vertical)
      (libsource (lib device) (part Crystal))
      (sheetpath (names /) (tstamps /))
      (tstamp 58C4A941))
    (comp (ref C6)
      (value 22p)
      (footprint Capacitors_SMD:C_1206_HandSoldering)
      (libsource (lib device) (part C))
      (sheetpath (names /) (tstamps /))
      (tstamp 58C4AD74))
    (comp (ref C7)
      (value 22p)
      (footprint Capacitors_SMD:C_1206_HandSoldering)
      (libsource (lib device) (part C))
      (sheetpath (names /) (tstamps /))
      (tstamp 58C4AE70))
    (comp (ref C5)
      (value 0.1u)
      (footprint Capacitors_SMD:C_1206_HandSoldering)
      (libsource (lib device) (part C))
      (sheetpath (names /) (tstamps /))
      (tstamp 58C4BAAB))
    (comp (ref J1)
      (value CONN_01X02)
      (footprint Pin_Headers:Pin_Header_Angled_1x02)
      (libsource (lib conn) (part CONN_01X02))
      (sheetpath (names /) (tstamps /))
      (tstamp 58F2BABF))
    (comp (ref J2)
      (value CONN_01X02)
      (footprint Pin_Headers:Pin_Header_Angled_1x02)
      (libsource (lib conn) (part CONN_01X02))
      (sheetpath (names /) (tstamps /))
      (tstamp 58F2C116))
    (comp (ref J3)
      (value CONN_01X03)
      (footprint Pin_Headers:Pin_Header_Angled_1x03)
      (libsource (lib conn) (part CONN_01X03))
      (sheetpath (names /) (tstamps /))
      (tstamp 58F2CBE3))
    (comp (ref J4)
      (value CONN_01X03)
      (footprint Pin_Headers:Pin_Header_Angled_1x03)
      (libsource (lib conn) (part CONN_01X03))
      (sheetpath (names /) (tstamps /))
      (tstamp 58F2CCAA))
    (comp (ref J5)
      (value CONN_02X03)
      (footprint Pin_Headers:Pin_Header_Straight_2x03)
      (libsource (lib conn) (part CONN_02X03))
      (sheetpath (names /) (tstamps /))
      (tstamp 58F4B555)))
  (libparts
    (libpart (lib atmel) (part ATTINY441-SSU)
      (aliases
        (alias ATTINY841-SSU))
      (description "SO14, 4k Flash, 256B SRAM, 256B EEPROM, ADC, ACI, dW")
      (docs http://www.atmel.com/Images/Atmel-8495-8-bit-AVR-Microcontrollers-ATtiny441-ATtiny841_Datasheet.pdf)
      (footprints
        (fp SO*))
      (fields
        (field (name Reference) U)
        (field (name Value) ATTINY441-SSU)
        (field (name Footprint) Housings_SOIC:SOIC-14_3.9x8.7mm_Pitch1.27mm))
      (pins
        (pin (num 1) (name VCC) (type power_in))
        (pin (num 2) (name "(PCINT8/CLKI/XTAL1/ADC11)PB0") (type BiDi))
        (pin (num 3) (name "(PCINT9/INT0/XTAL2/ADC10)PB1") (type BiDi))
        (pin (num 4) (name "(PCINT11/dW/~RESET~/ADC9)PB3") (type BiDi))
        (pin (num 5) (name "(PCINT10/RXD0/ICP2/CLKO/TOCC7/ADC8)PB2") (type BiDi))
        (pin (num 6) (name "(PCINT7/~SS~/TXD0/ICP1/TOCC6/ADC7)PA7") (type BiDi))
        (pin (num 7) (name "(PCINT6/MOSI/SDA/XCK1/TOCC5/ACO1/ADC6)PA6") (type BiDi))
        (pin (num 8) (name "(PCINT5/MISO/TXD1/T2/TOCC4/ACO0/ADC5)PA5") (type BiDi))
        (pin (num 9) (name "(PCINT4/SCK/SCL/RXD1/T1/TOCC3/AIN11/ADC4)PA4") (type BiDi))
        (pin (num 10) (name "(PCINT3/SCK/XCK0/T0/TOCC2/AIN10/ADC3)PA3") (type BiDi))
        (pin (num 11) (name "(PCINT2/~SS~/RXD0/TOCC1/AIN01/ADC2)PA2") (type BiDi))
        (pin (num 12) (name "(PCINT1/MOSI/TXD0/TOCC0/AIN00/ADC1)PA1") (type BiDi))
        (pin (num 13) (name "(PCINT0/MISO/AREF/ADC0)PA0") (type BiDi))
        (pin (num 14) (name GND) (type power_in))))
    (libpart (lib device) (part C)
      (description "Unpolarized capacitor")
      (footprints
        (fp C_*))
      (fields
        (field (name Reference) C)
        (field (name Value) C))
      (pins
        (pin (num 1) (name ~) (type passive))
        (pin (num 2) (name ~) (type passive))))
    (libpart (lib conn) (part CONN_01X02)
      (description "Connector, single row, 01x02, pin header")
      (footprints
        (fp Pin_Header_Straight_1X*)
        (fp Pin_Header_Angled_1X*)
        (fp Socket_Strip_Straight_1X*)
        (fp Socket_Strip_Angled_1X*))
      (fields
        (field (name Reference) J)
        (field (name Value) CONN_01X02))
      (pins
        (pin (num 1) (name P1) (type passive))
        (pin (num 2) (name P2) (type passive))))
    (libpart (lib conn) (part CONN_01X03)
      (description "Connector, single row, 01x03, pin header")
      (footprints
        (fp Pin_Header_Straight_1X*)
        (fp Pin_Header_Angled_1X*)
        (fp Socket_Strip_Straight_1X*)
        (fp Socket_Strip_Angled_1X*))
      (fields
        (field (name Reference) J)
        (field (name Value) CONN_01X03))
      (pins
        (pin (num 1) (name P1) (type passive))
        (pin (num 2) (name P2) (type passive))
        (pin (num 3) (name P3) (type passive))))
    (libpart (lib conn) (part CONN_02X03)
      (description "Connector, double row, 02x03, pin header")
      (footprints
        (fp Pin_Header_Straight_2X*)
        (fp Pin_Header_Angled_2X*)
        (fp Socket_Strip_Straight_2X*)
        (fp Socket_Strip_Angled_2X*)
        (fp IDC_Header_Straight_*))
      (fields
        (field (name Reference) J)
        (field (name Value) CONN_02X03))
      (pins
        (pin (num 1) (name P1) (type passive))
        (pin (num 2) (name P2) (type passive))
        (pin (num 3) (name P3) (type passive))
        (pin (num 4) (name P4) (type passive))
        (pin (num 5) (name P5) (type passive))
        (pin (num 6) (name P6) (type passive))))
    (libpart (lib device) (part Crystal)
      (description "Two pin crystal")
      (footprints
        (fp Crystal*))
      (fields
        (field (name Reference) Y)
        (field (name Value) Crystal))
      (pins
        (pin (num 1) (name 1) (type passive))
        (pin (num 2) (name 2) (type passive))))
    (libpart (lib em_7seg) (part EM_7SEG)
      (fields
        (field (name Reference) U)
        (field (name Value) EM_7SEG))
      (pins
        (pin (num 1) (name A_SET) (type input))
        (pin (num 2) (name A_RESET) (type input))
        (pin (num 3) (name B_SET) (type input))
        (pin (num 4) (name B_RESET) (type input))
        (pin (num 5) (name C_SET) (type input))
        (pin (num 6) (name C_RESET) (type input))
        (pin (num 7) (name D_SET) (type input))
        (pin (num 8) (name D_RESET) (type input))
        (pin (num 9) (name E_SET) (type input))
        (pin (num 10) (name E_RESET) (type input))
        (pin (num 11) (name F_SET) (type input))
        (pin (num 12) (name F_RESET) (type input))
        (pin (num 13) (name G_SET) (type input))
        (pin (num 14) (name G_RESET) (type input))))
    (libpart (lib device) (part R)
      (description Resistor)
      (footprints
        (fp R_*)
        (fp R_*))
      (fields
        (field (name Reference) R)
        (field (name Value) R))
      (pins
        (pin (num 1) (name ~) (type passive))
        (pin (num 2) (name ~) (type passive))))
    (libpart (lib em_7seg) (part TPIC6B595)
      (fields
        (field (name Reference) U)
        (field (name Value) TPIC6B595))
      (pins
        (pin (num 2) (name VCC) (type input))
        (pin (num 3) (name SERIN) (type input))
        (pin (num 4) (name DRAIN0) (type input))
        (pin (num 5) (name DRAIN1) (type input))
        (pin (num 6) (name DRAIN2) (type input))
        (pin (num 7) (name DRAIN3) (type input))
        (pin (num 8) (name SERCLR) (type input))
        (pin (num 9) (name G) (type input))
        (pin (num 10) (name GND) (type power_in))
        (pin (num 11) (name GND) (type power_in))
        (pin (num 12) (name RCK) (type input))
        (pin (num 13) (name SRCK) (type input))
        (pin (num 14) (name DRAIN4) (type input))
        (pin (num 15) (name DRAIN5) (type input))
        (pin (num 16) (name DRAIN6) (type input))
        (pin (num 17) (name DRAIN7) (type input))
        (pin (num 18) (name SEROUT) (type output))
        (pin (num 19) (name GND) (type power_in)))))
  (libraries
    (library (logical device)
      (uri "/Library/Application Support/kicad/library/device.lib"))
    (library (logical conn)
      (uri "/Library/Application Support/kicad/library/conn.lib"))
    (library (logical atmel)
      (uri "/Library/Application Support/kicad/library/atmel.lib"))
    (library (logical em_7seg)
      (uri "/Users/peter/Documents/Vane Display/em_7seg.lib")))
  (nets
    (net (code 1) (name "Net-(R17-Pad2)")
      (node (ref R17) (pin 2))
      (node (ref U5) (pin 8)))
    (net (code 2) (name "Net-(R18-Pad2)")
      (node (ref R18) (pin 2))
      (node (ref U6) (pin 8)))
    (net (code 3) (name "Net-(R2-Pad2)")
      (node (ref R2) (pin 2))
      (node (ref U2) (pin 8)))
    (net (code 4) (name "Net-(Digit2-Pad14)")
      (node (ref R31) (pin 2))
      (node (ref U5) (pin 16))
      (node (ref Digit2) (pin 14)))
    (net (code 5) (name "Net-(Digit1-Pad14)")
      (node (ref Digit1) (pin 14))
      (node (ref R32) (pin 2))
      (node (ref U6) (pin 16)))
    (net (code 6) (name "Net-(IC1-Pad12)")
      (node (ref IC1) (pin 12))
      (node (ref U1) (pin 3)))
    (net (code 7) (name "Net-(R1-Pad2)")
      (node (ref R1) (pin 2))
      (node (ref U1) (pin 8)))
    (net (code 8) (name "Net-(Digit1-Pad9)")
      (node (ref U2) (pin 14))
      (node (ref Digit1) (pin 9))
      (node (ref R12) (pin 2)))
    (net (code 9) (name "Net-(Digit1-Pad11)")
      (node (ref U2) (pin 15))
      (node (ref R14) (pin 2))
      (node (ref Digit1) (pin 11)))
    (net (code 10) (name "Net-(Digit1-Pad13)")
      (node (ref R16) (pin 2))
      (node (ref U2) (pin 16))
      (node (ref Digit1) (pin 13)))
    (net (code 11) (name "Net-(Digit1-Pad12)")
      (node (ref R30) (pin 2))
      (node (ref Digit1) (pin 12))
      (node (ref U6) (pin 15)))
    (net (code 12) (name "Net-(Digit1-Pad10)")
      (node (ref U6) (pin 14))
      (node (ref R28) (pin 2))
      (node (ref Digit1) (pin 10)))
    (net (code 13) (name "Net-(Digit1-Pad8)")
      (node (ref U6) (pin 7))
      (node (ref Digit1) (pin 8))
      (node (ref R26) (pin 2)))
    (net (code 14) (name "Net-(Digit1-Pad6)")
      (node (ref R24) (pin 2))
      (node (ref U6) (pin 6))
      (node (ref Digit1) (pin 6)))
    (net (code 15) (name "Net-(Digit1-Pad4)")
      (node (ref R22) (pin 2))
      (node (ref Digit1) (pin 4))
      (node (ref U6) (pin 5)))
    (net (code 16) (name "Net-(Digit1-Pad1)")
      (node (ref R4) (pin 2))
      (node (ref Digit1) (pin 1))
      (node (ref U2) (pin 4)))
    (net (code 17) (name "Net-(Digit1-Pad3)")
      (node (ref R6) (pin 2))
      (node (ref Digit1) (pin 3))
      (node (ref U2) (pin 5)))
    (net (code 18) (name "Net-(Digit1-Pad5)")
      (node (ref U2) (pin 6))
      (node (ref R8) (pin 2))
      (node (ref Digit1) (pin 5)))
    (net (code 19) (name "Net-(Digit1-Pad7)")
      (node (ref Digit1) (pin 7))
      (node (ref R10) (pin 2))
      (node (ref U2) (pin 7)))
    (net (code 20) (name "Net-(Digit1-Pad2)")
      (node (ref U6) (pin 4))
      (node (ref Digit1) (pin 2))
      (node (ref R20) (pin 2)))
    (net (code 21) (name "Net-(U5-Pad17)")
      (node (ref U5) (pin 17)))
    (net (code 22) (name "Net-(U2-Pad17)")
      (node (ref U2) (pin 17)))
    (net (code 23) (name "Net-(U1-Pad17)")
      (node (ref U1) (pin 17)))
    (net (code 24) (name /TXD0)
      (node (ref J4) (pin 2))
      (node (ref IC1) (pin 6)))
    (net (code 25) (name /RXD0)
      (node (ref J4) (pin 3))
      (node (ref IC1) (pin 5)))
    (net (code 26) (name "Net-(U1-Pad18)")
      (node (ref U1) (pin 18))
      (node (ref U2) (pin 3)))
    (net (code 27) (name "Net-(U5-Pad18)")
      (node (ref U6) (pin 3))
      (node (ref U5) (pin 18)))
    (net (code 28) (name "Net-(U2-Pad18)")
      (node (ref U2) (pin 18))
      (node (ref U5) (pin 3)))
    (net (code 29) (name +24V)
      (node (ref R22) (pin 1))
      (node (ref R24) (pin 1))
      (node (ref R23) (pin 1))
      (node (ref R16) (pin 1))
      (node (ref R3) (pin 1))
      (node (ref R20) (pin 1))
      (node (ref J1) (pin 2))
      (node (ref R11) (pin 1))
      (node (ref R13) (pin 1))
      (node (ref R9) (pin 1))
      (node (ref R15) (pin 1))
      (node (ref R19) (pin 1))
      (node (ref R21) (pin 1))
      (node (ref R7) (pin 1))
      (node (ref R5) (pin 1))
      (node (ref R27) (pin 1))
      (node (ref R25) (pin 1))
      (node (ref R32) (pin 1))
      (node (ref R14) (pin 1))
      (node (ref R12) (pin 1))
      (node (ref R10) (pin 1))
      (node (ref R8) (pin 1))
      (node (ref R6) (pin 1))
      (node (ref R4) (pin 1))
      (node (ref R31) (pin 1))
      (node (ref R29) (pin 1))
      (node (ref R30) (pin 1))
      (node (ref R28) (pin 1))
      (node (ref R26) (pin 1)))
    (net (code 30) (name +5V)
      (node (ref U2) (pin 2))
      (node (ref U6) (pin 2))
      (node (ref J2) (pin 2))
      (node (ref U1) (pin 2))
      (node (ref U5) (pin 2))
      (node (ref C4) (pin 1))
      (node (ref C2) (pin 1))
      (node (ref R2) (pin 1))
      (node (ref R18) (pin 1))
      (node (ref R17) (pin 1))
      (node (ref C1) (pin 1))
      (node (ref R1) (pin 1))
      (node (ref IC1) (pin 1))
      (node (ref C3) (pin 1))
      (node (ref C5) (pin 1))
      (node (ref J5) (pin 2)))
    (net (code 31) (name GND)
      (node (ref U1) (pin 11))
      (node (ref C3) (pin 2))
      (node (ref IC1) (pin 14))
      (node (ref U2) (pin 19))
      (node (ref U1) (pin 10))
      (node (ref U5) (pin 10))
      (node (ref C1) (pin 2))
      (node (ref U5) (pin 19))
      (node (ref U5) (pin 11))
      (node (ref C2) (pin 2))
      (node (ref U1) (pin 19))
      (node (ref U6) (pin 11))
      (node (ref U6) (pin 10))
      (node (ref C4) (pin 2))
      (node (ref C5) (pin 2))
      (node (ref C7) (pin 1))
      (node (ref C6) (pin 1))
      (node (ref J3) (pin 1))
      (node (ref J4) (pin 1))
      (node (ref J5) (pin 6))
      (node (ref J2) (pin 1))
      (node (ref U2) (pin 10))
      (node (ref U2) (pin 11))
      (node (ref J1) (pin 1))
      (node (ref U6) (pin 19)))
    (net (code 32) (name "Net-(U6-Pad17)")
      (node (ref U6) (pin 17)))
    (net (code 33) (name "Net-(U6-Pad18)")
      (node (ref U6) (pin 18)))
    (net (code 34) (name "Net-(IC1-Pad13)")
      (node (ref IC1) (pin 13)))
    (net (code 35) (name /I_MOSI)
      (node (ref J3) (pin 2))
      (node (ref IC1) (pin 7))
      (node (ref J5) (pin 4)))
    (net (code 36) (name /I_MISO)
      (node (ref U2) (pin 9))
      (node (ref U6) (pin 9))
      (node (ref U1) (pin 9))
      (node (ref U5) (pin 9))
      (node (ref IC1) (pin 8))
      (node (ref J5) (pin 1)))
    (net (code 37) (name /I_RESET)
      (node (ref IC1) (pin 4))
      (node (ref J5) (pin 5)))
    (net (code 38) (name "Net-(IC1-Pad11)")
      (node (ref U2) (pin 12))
      (node (ref U6) (pin 12))
      (node (ref IC1) (pin 11))
      (node (ref U1) (pin 12))
      (node (ref U5) (pin 12)))
    (net (code 39) (name "Net-(IC1-Pad10)")
      (node (ref IC1) (pin 10))
      (node (ref U5) (pin 13))
      (node (ref U1) (pin 13))
      (node (ref U6) (pin 13))
      (node (ref U2) (pin 13)))
    (net (code 40) (name /I_SCK)
      (node (ref J5) (pin 3))
      (node (ref IC1) (pin 9))
      (node (ref J3) (pin 3)))
    (net (code 41) (name "Net-(Digit2-Pad1)")
      (node (ref R3) (pin 2))
      (node (ref U1) (pin 4))
      (node (ref Digit2) (pin 1)))
    (net (code 42) (name "Net-(Digit2-Pad3)")
      (node (ref Digit2) (pin 3))
      (node (ref R5) (pin 2))
      (node (ref U1) (pin 5)))
    (net (code 43) (name "Net-(Digit2-Pad5)")
      (node (ref Digit2) (pin 5))
      (node (ref R7) (pin 2))
      (node (ref U1) (pin 6)))
    (net (code 44) (name "Net-(Digit2-Pad7)")
      (node (ref R9) (pin 2))
      (node (ref U1) (pin 7))
      (node (ref Digit2) (pin 7)))
    (net (code 45) (name "Net-(Digit2-Pad9)")
      (node (ref U1) (pin 14))
      (node (ref R11) (pin 2))
      (node (ref Digit2) (pin 9)))
    (net (code 46) (name "Net-(Digit2-Pad11)")
      (node (ref R13) (pin 2))
      (node (ref U1) (pin 15))
      (node (ref Digit2) (pin 11)))
    (net (code 47) (name "Net-(Digit2-Pad12)")
      (node (ref Digit2) (pin 12))
      (node (ref R29) (pin 2))
      (node (ref U5) (pin 15)))
    (net (code 48) (name "Net-(Digit2-Pad13)")
      (node (ref R15) (pin 2))
      (node (ref U1) (pin 16))
      (node (ref Digit2) (pin 13)))
    (net (code 49) (name "Net-(C6-Pad2)")
      (node (ref IC1) (pin 2))
      (node (ref C6) (pin 2))
      (node (ref Y1) (pin 1)))
    (net (code 50) (name "Net-(C7-Pad2)")
      (node (ref C7) (pin 2))
      (node (ref Y1) (pin 2))
      (node (ref IC1) (pin 3)))
    (net (code 51) (name "Net-(Digit2-Pad2)")
      (node (ref R19) (pin 2))
      (node (ref Digit2) (pin 2))
      (node (ref U5) (pin 4)))
    (net (code 52) (name "Net-(Digit2-Pad4)")
      (node (ref R21) (pin 2))
      (node (ref U5) (pin 5))
      (node (ref Digit2) (pin 4)))
    (net (code 53) (name "Net-(Digit2-Pad6)")
      (node (ref Digit2) (pin 6))
      (node (ref R23) (pin 2))
      (node (ref U5) (pin 6)))
    (net (code 54) (name "Net-(Digit2-Pad8)")
      (node (ref Digit2) (pin 8))
      (node (ref U5) (pin 7))
      (node (ref R25) (pin 2)))
    (net (code 55) (name "Net-(Digit2-Pad10)")
      (node (ref U5) (pin 14))
      (node (ref Digit2) (pin 10))
      (node (ref R27) (pin 2)))))