(module Pin_Header_Straight_2x03 (layer F.Cu) (tedit 58F5B8AB)
  (descr "Through hole pin header")
  (tags "pin header")
  (fp_text reference J5 (at 1.27 -2.286) (layer F.SilkS) hide
    (effects (font (size 1 1) (thickness 0.15)))
  )
  (fp_text value CONN_02X03 (at 0 -3.1) (layer F.Fab) hide
    (effects (font (size 1 1) (thickness 0.15)))
  )
  (fp_line (start -1.27 1.27) (end 1.27 1.27) (layer B.SilkS) (width 0.15))
  (fp_line (start 1.27 1.27) (end 1.27 -1.27) (layer B.SilkS) (width 0.15))
  (fp_line (start 1.27 -1.27) (end 3.81 -1.27) (layer B.SilkS) (width 0.15))
  (fp_line (start 3.81 -1.27) (end 3.81 6.35) (layer B.SilkS) (width 0.15))
  (fp_line (start 3.81 6.35) (end -1.27 6.35) (layer B.SilkS) (width 0.15))
  (fp_line (start -1.27 6.35) (end -1.27 1.27) (layer B.SilkS) (width 0.15))
  (fp_line (start -1.524 0) (end -1.524 -1.524) (layer B.SilkS) (width 0.15))
  (fp_line (start -1.524 -1.524) (end 0 -1.524) (layer B.SilkS) (width 0.15))
  (fp_line (start -1.27 1.27) (end -1.27 6.35) (layer F.SilkS) (width 0.15))
  (fp_line (start -1.55 -1.55) (end 0 -1.55) (layer F.SilkS) (width 0.15))
  (fp_line (start -1.75 -1.75) (end -1.75 6.85) (layer F.CrtYd) (width 0.05))
  (fp_line (start 4.3 -1.75) (end 4.3 6.85) (layer F.CrtYd) (width 0.05))
  (fp_line (start -1.75 -1.75) (end 4.3 -1.75) (layer F.CrtYd) (width 0.05))
  (fp_line (start -1.75 6.85) (end 4.3 6.85) (layer F.CrtYd) (width 0.05))
  (fp_line (start 1.27 -1.27) (end 1.27 1.27) (layer F.SilkS) (width 0.15))
  (fp_line (start 1.27 1.27) (end -1.27 1.27) (layer F.SilkS) (width 0.15))
  (fp_line (start -1.27 6.35) (end 3.81 6.35) (layer F.SilkS) (width 0.15))
  (fp_line (start 3.81 6.35) (end 3.81 1.27) (layer F.SilkS) (width 0.15))
  (fp_line (start -1.55 -1.55) (end -1.55 0) (layer F.SilkS) (width 0.15))
  (fp_line (start 3.81 -1.27) (end 1.27 -1.27) (layer F.SilkS) (width 0.15))
  (fp_line (start 3.81 1.27) (end 3.81 -1.27) (layer F.SilkS) (width 0.15))
  (pad 1 thru_hole rect (at 0 0) (size 1.7272 1.7272) (drill 1.016) (layers *.Cu *.Mask))
  (pad 2 thru_hole oval (at 2.54 0) (size 1.7272 1.7272) (drill 1.016) (layers *.Cu *.Mask))
  (pad 3 thru_hole oval (at 0 2.54) (size 1.7272 1.7272) (drill 1.016) (layers *.Cu *.Mask))
  (pad 4 thru_hole oval (at 2.54 2.54) (size 1.7272 1.7272) (drill 1.016) (layers *.Cu *.Mask))
  (pad 5 thru_hole oval (at 0 5.08) (size 1.7272 1.7272) (drill 1.016) (layers *.Cu *.Mask))
  (pad 6 thru_hole oval (at 2.54 5.08) (size 1.7272 1.7272) (drill 1.016) (layers *.Cu *.Mask))
  (model Pin_Headers.3dshapes/Pin_Header_Straight_2x03.wrl
    (at (xyz 0.05 -0.1 0))
    (scale (xyz 1 1 1))
    (rotate (xyz 0 0 90))
  )
)
