(module S7S-display (layer F.Cu) (tedit 58F2C91A)
  (descr "Footprint for 1\" electromechanical seven segment display")
  (fp_text reference REF** (at 0 23.622) (layer F.SilkS)
    (effects (font (size 1 1) (thickness 0.15)))
  )
  (fp_text value S7S-display (at 0 -19.812) (layer F.Fab) hide
    (effects (font (size 1 1) (thickness 0.15)))
  )
  (fp_text user G (at 0 -2.032) (layer F.SilkS)
    (effects (font (size 1 1) (thickness 0.15) italic))
  )
  (fp_text user F (at -6.604 -8.128) (layer F.SilkS)
    (effects (font (size 1 1) (thickness 0.15) italic))
  )
  (fp_text user E (at -8.382 3.556) (layer F.SilkS)
    (effects (font (size 1 1) (thickness 0.15) italic))
  )
  (fp_text user D (at -2.286 11.176) (layer F.SilkS)
    (effects (font (size 1 1) (thickness 0.15) italic))
  )
  (fp_text user C (at 6.604 3.81) (layer F.SilkS)
    (effects (font (size 1 1) (thickness 0.15) italic))
  )
  (fp_text user B (at 8.636 -7.62) (layer F.SilkS)
    (effects (font (size 1 1) (thickness 0.15) italic))
  )
  (fp_text user A (at 2.286 -15.494) (layer F.SilkS)
    (effects (font (size 1 1) (thickness 0.15) italic))
  )
  (fp_line (start -13.716 21.59) (end 13.5128 21.59) (layer F.SilkS) (width 0.15))
  (fp_line (start 13.5128 21.59) (end 13.462 -21.336) (layer F.SilkS) (width 0.15))
  (fp_line (start 13.462 -21.336) (end -13.716 -21.336) (layer F.SilkS) (width 0.15))
  (fp_line (start -13.716 -21.336) (end -13.716 21.59) (layer F.SilkS) (width 0.15))
  (pad 1 thru_hole circle (at 0.5334 -13.081) (size 2.54 2.54) (drill 1.27) (layers *.Cu *.Mask))
  (pad 2 thru_hole circle (at 4.0894 -13.081) (size 2.54 2.54) (drill 1.27) (layers *.Cu *.Mask))
  (pad 3 thru_hole circle (at 6.7056 -5.588) (size 2.54 2.54) (drill 1.27) (layers *.Cu *.Mask))
  (pad 4 thru_hole circle (at 10.2616 -5.588) (size 2.54 2.54) (drill 1.27) (layers *.Cu *.Mask))
  (pad 5 thru_hole circle (at 4.6736 5.842) (size 2.54 2.54) (drill 1.27) (layers *.Cu *.Mask))
  (pad 6 thru_hole circle (at 8.2296 5.842) (size 2.54 2.54) (drill 1.27) (layers *.Cu *.Mask))
  (pad 7 thru_hole circle (at -4.1402 13.335) (size 2.54 2.54) (drill 1.27) (layers *.Cu *.Mask))
  (pad 8 thru_hole circle (at -0.5842 13.335) (size 2.54 2.54) (drill 1.27) (layers *.Cu *.Mask))
  (pad 9 thru_hole circle (at -10.3124 5.842) (size 2.54 2.54) (drill 1.27) (layers *.Cu *.Mask))
  (pad 10 thru_hole circle (at -6.7564 5.842) (size 2.54 2.54) (drill 1.27) (layers *.Cu *.Mask))
  (pad 11 thru_hole circle (at -8.2804 -5.588) (size 2.54 2.54) (drill 1.27) (layers *.Cu *.Mask))
  (pad 12 thru_hole circle (at -4.7244 -5.588) (size 2.54 2.54) (drill 1.27) (layers *.Cu *.Mask))
  (pad 13 thru_hole circle (at -1.8034 0.127) (size 2.54 2.54) (drill 1.27) (layers *.Cu *.Mask))
  (pad 14 thru_hole circle (at 1.7526 0.127) (size 2.54 2.54) (drill 1.27) (layers *.Cu *.Mask))
)
